%YAML 1.1
%TAG !u! tag:unity3d.com,2011:
--- !u!74 &7400000
AnimationClip:
  m_ObjectHideFlags: 0
  m_CorrespondingSourceObject: {fileID: 0}
  m_PrefabInstance: {fileID: 0}
  m_PrefabAsset: {fileID: 0}
  m_Name: jump
  serializedVersion: 6
  m_Legacy: 0
  m_Compressed: 0
  m_UseHighQualityCurve: 1
  m_RotationCurves: []
  m_CompressedRotationCurves: []
  m_EulerCurves: []
  m_PositionCurves: []
  m_ScaleCurves: []
  m_FloatCurves: []
  m_PPtrCurves:
  - curve:
    - time: 0
      value: {fileID: 21300000, guid: 2ecde1eb4bdc71e49b781da4e9710e82, type: 3}
    - time: 0.16666667
      value: {fileID: 21300000, guid: 550ca747a398594488be00de2a77f376, type: 3}
    - time: 0.33333334
      value: {fileID: 21300000, guid: cc66e6fba1153ba4c9b0526d7adc7421, type: 3}
    - time: 0.5
      value: {fileID: 21300000, guid: fd89ed9c995f91041946943169a3f3f4, type: 3}
    - time: 0.6666667
      value: {fileID: 21300000, guid: 957a3936bf42bd04fb756c2d2cebd7af, type: 3}
    - time: 0.8333333
      value: {fileID: 21300000, guid: d1b31d6c247c8384095e8cbcfcbbf8f5, type: 3}
    - time: 1
      value: {fileID: 21300000, guid: a83db1121b7f8e14a8b57e89b22bf9aa, type: 3}
    attribute: m_Sprite
    path: New Sprite
    classID: 212
    script: {fileID: 0}
  m_SampleRate: 60
  m_WrapMode: 0
  m_Bounds:
    m_Center: {x: 0, y: 0, z: 0}
    m_Extent: {x: 0, y: 0, z: 0}
  m_ClipBindingConstant:
    genericBindings:
    - serializedVersion: 2
      path: 2673217936
      attribute: 0
      script: {fileID: 0}
      typeID: 212
      customType: 23
      isPPtrCurve: 1
    pptrCurveMapping:
    - {fileID: 21300000, guid: 2ecde1eb4bdc71e49b781da4e9710e82, type: 3}
    - {fileID: 21300000, guid: 550ca747a398594488be00de2a77f376, type: 3}
    - {fileID: 21300000, guid: cc66e6fba1153ba4c9b0526d7adc7421, type: 3}
    - {fileID: 21300000, guid: fd89ed9c995f91041946943169a3f3f4, type: 3}
    - {fileID: 21300000, guid: 957a3936bf42bd04fb756c2d2cebd7af, type: 3}
    - {fileID: 21300000, guid: d1b31d6c247c8384095e8cbcfcbbf8f5, type: 3}
    - {fileID: 21300000, guid: a83db1121b7f8e14a8b57e89b22bf9aa, type: 3}
  m_AnimationClipSettings:
    serializedVersion: 2
    m_AdditiveReferencePoseClip: {fileID: 0}
    m_AdditiveReferencePoseTime: 0
    m_StartTime: 0
    m_StopTime: 1.0166667
    m_OrientationOffsetY: 0
    m_Level: 0
    m_CycleOffset: 0
    m_HasAdditiveReferencePose: 0
    m_LoopTime: 1
    m_LoopBlend: 0
    m_LoopBlendOrientation: 0
    m_LoopBlendPositionY: 0
    m_LoopBlendPositionXZ: 0
    m_KeepOriginalOrientation: 0
    m_KeepOriginalPositionY: 1
    m_KeepOriginalPositionXZ: 0
    m_HeightFromFeet: 0
    m_Mirror: 0
  m_EditorCurves: []
  m_EulerEditorCurves: []
  m_HasGenericRootTransform: 0
  m_HasMotionFloatCurves: 0
  m_Events: []
