%YAML 1.1
%TAG !u! tag:unity3d.com,2011:
--- !u!1045 &1
EditorBuildSettings:
  m_ObjectHideFlags: 0
  serializedVersion: 2
  m_Scenes:
  - enabled: 1
    path: Assets/Scenes/SampleScene.unity
    guid: 6982c616936d12a4cb6e48c5669eab67
  - enabled: 0
    path: 
    guid: 00000000000000000000000000000000
  - enabled: 1
    path: Assets/Scenes/Restart.unity
    guid: 03157a672282ba142bb114f11d89d7e5
  - enabled: 1
    path: Assets/Scenes/Start.unity
    guid: f57cf012b7bcbd64087384f14331f095
  - enabled: 1
    path: Assets/Scenes/Victory.unity
    guid: 4258d0a77135c5a479b616e1b573b702
  m_configObjects: {}
