%YAML 1.1
%TAG !u! tag:unity3d.com,2011:
--- !u!74 &7400000
AnimationClip:
  m_ObjectHideFlags: 0
  m_CorrespondingSourceObject: {fileID: 0}
  m_PrefabInstance: {fileID: 0}
  m_PrefabAsset: {fileID: 0}
  m_Name: Run
  serializedVersion: 6
  m_Legacy: 0
  m_Compressed: 0
  m_UseHighQualityCurve: 1
  m_RotationCurves: []
  m_CompressedRotationCurves: []
  m_EulerCurves: []
  m_PositionCurves: []
  m_ScaleCurves: []
  m_FloatCurves: []
  m_PPtrCurves:
  - curve:
    - time: 0
      value: {fileID: 21300000, guid: ecdc2bc22d3998441ad3a719e9b69731, type: 3}
    - time: 0.16666667
      value: {fileID: 21300000, guid: fc7a3dde7da49bb4fa74c02f6b0e2955, type: 3}
    - time: 0.33333334
      value: {fileID: 21300000, guid: 9de58ba46c784be489423201b392a927, type: 3}
    - time: 0.5
      value: {fileID: 21300000, guid: 8aa264f4e1b14eb478dc3fea610eff9f, type: 3}
    - time: 0.6666667
      value: {fileID: 21300000, guid: 9cec4f8ff681c3c4fba2339587b9df3a, type: 3}
    - time: 0.8333333
      value: {fileID: 21300000, guid: f800cef66ddd49e40855bbb62ca74e2c, type: 3}
    - time: 1
      value: {fileID: 21300000, guid: ecdc2bc22d3998441ad3a719e9b69731, type: 3}
    attribute: m_Sprite
    path: Sprite
    classID: 212
    script: {fileID: 0}
  m_SampleRate: 60
  m_WrapMode: 0
  m_Bounds:
    m_Center: {x: 0, y: 0, z: 0}
    m_Extent: {x: 0, y: 0, z: 0}
  m_ClipBindingConstant:
    genericBindings:
    - serializedVersion: 2
      path: 850496168
      attribute: 0
      script: {fileID: 0}
      typeID: 212
      customType: 23
      isPPtrCurve: 1
    pptrCurveMapping:
    - {fileID: 21300000, guid: ecdc2bc22d3998441ad3a719e9b69731, type: 3}
    - {fileID: 21300000, guid: fc7a3dde7da49bb4fa74c02f6b0e2955, type: 3}
    - {fileID: 21300000, guid: 9de58ba46c784be489423201b392a927, type: 3}
    - {fileID: 21300000, guid: 8aa264f4e1b14eb478dc3fea610eff9f, type: 3}
    - {fileID: 21300000, guid: 9cec4f8ff681c3c4fba2339587b9df3a, type: 3}
    - {fileID: 21300000, guid: f800cef66ddd49e40855bbb62ca74e2c, type: 3}
    - {fileID: 21300000, guid: ecdc2bc22d3998441ad3a719e9b69731, type: 3}
  m_AnimationClipSettings:
    serializedVersion: 2
    m_AdditiveReferencePoseClip: {fileID: 0}
    m_AdditiveReferencePoseTime: 0
    m_StartTime: 0
    m_StopTime: 1.0166667
    m_OrientationOffsetY: 0
    m_Level: 0
    m_CycleOffset: 0
    m_HasAdditiveReferencePose: 0
    m_LoopTime: 1
    m_LoopBlend: 0
    m_LoopBlendOrientation: 0
    m_LoopBlendPositionY: 0
    m_LoopBlendPositionXZ: 0
    m_KeepOriginalOrientation: 0
    m_KeepOriginalPositionY: 1
    m_KeepOriginalPositionXZ: 0
    m_HeightFromFeet: 0
    m_Mirror: 0
  m_EditorCurves: []
  m_EulerEditorCurves: []
  m_HasGenericRootTransform: 0
  m_HasMotionFloatCurves: 0
  m_Events: []
